%YAML 1.1
%TAG !u! tag:unity3d.com,2011:
--- !u!114 &11400000
MonoBehaviour:
  m_ObjectHideFlags: 0
  m_CorrespondingSourceObject: {fileID: 0}
  m_PrefabInstance: {fileID: 0}
  m_PrefabAsset: {fileID: 0}
  m_GameObject: {fileID: 0}
  m_Enabled: 1
  m_EditorHideFlags: 0
  m_Script: {fileID: 11500000, guid: 42e7f4defcc65f446bd56f817eb33d7a, type: 3}
  m_Name: New Change Color Reaction
  m_EditorClassIdentifier: 
  typeToReactWith: 0
  ReactWithAny: 0
  colorToChangeTo: 1
  copyColor: 0
